universal shift register/simulation/qsim/universal_shift_register.msim.vcd
$comment
	File created using the following command:
		vcd file universal_shift_register.msim.vcd -direction
$end
$date
	Fri Apr 27 16:18:31 2018
$end
$version
	ModelSim Version 10.5b
$end
$timescale
	1ps
$end

$scope module universal_shift_register_vlg_vec_tst $end
$var reg 1 ! clear $end
$var reg 1 " clk $end
$var reg 1 # lsb $end
$var reg 1 $ msb $end
$var reg 4 % parallel_in [3:0] $end
$var reg 2 & select [1:0] $end
$var wire 1 ' parallel_out [3] $end
$var wire 1 ( parallel_out [2] $end
$var wire 1 ) parallel_out [1] $end
$var wire 1 * parallel_out [0] $end

$scope module i1 $end
$var wire 1 + gnd $end
$var wire 1 , vcc $end
$var wire 1 - unknown $end
$var tri1 1 . devclrn $end
$var tri1 1 / devpor $end
$var tri1 1 0 devoe $end
$var wire 1 1 parallel_out[0]~output_o $end
$var wire 1 2 parallel_out[1]~output_o $end
$var wire 1 3 parallel_out[2]~output_o $end
$var wire 1 4 parallel_out[3]~output_o $end
$var wire 1 5 clk~input_o $end
$var wire 1 6 select[1]~input_o $end
$var wire 1 7 select[0]~input_o $end
$var wire 1 8 msb~input_o $end
$var wire 1 9 parallel_in[3]~input_o $end
$var wire 1 : comb_6|Mux0~0_combout $end
$var wire 1 ; clear~input_o $end
$var wire 1 < comb_7|Q~0_combout $end
$var wire 1 = comb_10|Q~q $end
$var wire 1 > parallel_in[2]~input_o $end
$var wire 1 ? comb_5|Mux0~0_combout $end
$var wire 1 @ comb_9|Q~q $end
$var wire 1 A parallel_in[1]~input_o $end
$var wire 1 B comb_4|Mux0~0_combout $end
$var wire 1 C comb_8|Q~q $end
$var wire 1 D parallel_in[0]~input_o $end
$var wire 1 E lsb~input_o $end
$var wire 1 F comb_3|Mux0~0_combout $end
$var wire 1 G comb_7|Q~q $end
$upscope $end
$upscope $end
$enddefinitions $end
#0
$dumpvars
1!
0"
0#
0$
b1001 %
b0 &
0*
0)
0(
0'
0+
1,
x-
1.
1/
10
01
02
03
04
05
06
07
08
19
0:
1;
0<
0=
0>
0?
0@
0A
0B
0C
1D
0E
0F
0G
$end
#40000
1"
15
#80000
1#
1$
b1011 %
0"
1E
18
1A
05
1:
#120000
1"
15
#160000
0$
0"
08
05
0:
#200000
1"
15
#240000
b11 %
b111 %
0#
b101 %
1$
0"
0A
1>
09
0E
18
05
1:
#250000
b10 &
16
1<
0:
#280000
1"
15
#320000
b100 %
b0 %
1#
0$
0"
0D
0>
1E
08
05
1F
#360000
1"
15
1G
11
1*
1B
#400000
b1000 %
b1010 %
0#
1$
0"
1A
19
0E
18
05
0F
#440000
1"
15
0G
1C
12
01
0*
1)
1?
0B
#480000
b1110 %
b1100 %
0"
0A
1>
05
#500000
b11 &
b1 &
17
06
1F
0?
1:
#520000
1"
15
1G
0C
1=
14
02
11
1*
0)
1'
1?
0F
#560000
b1101 %
b101 %
b1 %
0"
1D
0>
09
05
#600000
1"
15
0G
1@
13
01
0*
1(
1B
#640000
1#
0$
b11 %
0"
1E
08
1A
05
0:
#680000
1"
15
1C
0=
04
12
1)
0'
0?
1F
#720000
b10 %
b1010 %
b1110 %
0"
0D
1>
19
05
#750000
b11 &
16
0F
1?
1:
#760000
1"
15
1=
14
1'
#800000
b1100 %
b1101 %
b101 %
0"
1D
0A
09
05
0:
0B
1F
#840000
1"
15
1G
0C
0=
04
02
11
1*
0)
0'
#880000
1$
b1 %
b11 %
b10 %
0"
18
0D
1A
0>
05
0?
1B
0F
#920000
1"
15
0G
1C
0@
03
12
01
0*
1)
0(
#960000
0#
b110 %
b100 %
0"
0E
0A
1>
05
1?
0B
